…
    ## # A tibble: 4 x 2
    ##   variable                                                   temp_mean_aft
    ##   <chr>                                                              <dbl>
    ## 1 percent_of_family_households_living_below_the_poverty_line         0.398
    ## 2 violent_crime_rate_per_1_000_residents                             0.580
    ## 3 life_expectancy                                                   -0.409
    ## 4 unemployment_rate                                                  0.316

``` r
# Graphic table
csa_tree_temp_demographics %>%
  select(csa2010, temp_mean_aft, matches("households_living|violent|life|unemployment"))
```

    ## # A tibble: 55 x 6
    ##    csa2010 temp_mean_aft percent_of_fami… violent_crime_r… life_expectancy
    ##    <chr>           <dbl>            <dbl>            <dbl>           <dbl>
    ##  1 allend…          94.0            20.7              19.4            69.6
    ##  2 beechf…          92.6            10.5              11.0            73.4
    ##  3 belair…          95.1            20.3              19.3            70.5
    ##  4 brookl…          95.0            24.2              29.9            69.2
    ##  5 canton           95.3             3.66             10.4            79.8
    ##  6 cedoni…          94.4            12.2              15.6            72.2
    ##  7 cherry…          95.0            39.3              26.7            70  
    ##  8 chinqu…          93.8            10.1              10.6            75.3
    ##  9 clarem…          94.6            24                15.8            70.5
    ## 10 clifto…          96.7            27.6              25.1            67.6
    ## # … with 45 more rows, and 1 more variable: unemployment_rate <dbl>
…
"McElderry Park, which despite its lyrical name offers little green space, is one of these: the hottest neighborhood in Baltimore, a city whose climate has long been classified as humid subtropical."

#### Explanation \[cq\]

Using the mean afternoon temperature in the urban heat island study, McElderry Park was the city's hottest neighborhood, with a mean afternoon temperature of 99.4 degrees F.

#### Supporting code and output \[cq\]

``` r
nsa_tree_temp %>%
  select(nsa_name, temp_mean_aft) %>%
  arrange(desc(temp_mean_aft))
```

    ## # A tibble: 278 x 2
    ##    nsa_name              temp_mean_aft
    ##    <chr>                         <dbl>
    ##  1 mcelderry park                 99.4
    ##  2 milton-montford                99.3
    ##  3 patterson place                98.6
    ##  4 dunbar-broadway                98.3
    ##  5 ellwood park/monument          98.3
    ##  6 penn-fallsway                  98.3
    ##  7 pleasant view gardens          98.3
    ##  8 madison-eastend                97.9
    ##  9 old goucher                    97.9
    ## 10 biddle street                  97.9
    ## # … with 268 more rows
…
#### Explanation \[cq\]

The average temperature between July 16 and July 22 was 94.2 degrees, hotter than any period of the summer so far.

#### Supporting code and output \[cq\]

``` r
dmh %>%
  filter(year == 2019) %>%
  filter(date >= "2019-06-21",
         date <= "2019-09-21")
```

    ## # A tibble: 1,749 x 9
    ##    date        year month   day  hour avg_hourly_temp… avg_hourly_dewp…
    ##    <date>     <dbl> <dbl> <dbl> <dbl>            <dbl>            <dbl>
    ##  1 2019-06-21  2019     6    21     0             73               70  
    ##  2 2019-06-21  2019     6    21     1             73               70  
    ##  3 2019-06-21  2019     6    21     2             73               69.1
    ##  4 2019-06-21  2019     6    21     3             73.9             64  
    ##  5 2019-06-21  2019     6    21     4             73.9             62.1
    ##  6 2019-06-21  2019     6    21     5             73               62.1
    ##  7 2019-06-21  2019     6    21     6             73.9             62.1
    ##  8 2019-06-21  2019     6    21     7             73.9             60.1
    ##  9 2019-06-21  2019     6    21     8             73.9             60.1
    ## 10 2019-06-21  2019     6    21     9             73.9             60.1
    ## # … with 1,739 more rows, and 2 more variables:
    ## #   avg_hourly_relative_humidity_dmh <dbl>,
    ## #   avg_hourly_heat_index_dmh <dbl>
…
# calculate mean temperature for seven days prior in each date in data
running_average <- as_tibble(runMean(summer_means$mean_heat_index, n=7))

# bind moving average back to summer means
summer_means <- bind_cols(summer_means, running_average) %>%
  select(date, value) %>%
  rename(seven_day_prior_mean_temp = value) %>%
  arrange(desc(seven_day_prior_mean_temp))

# display summer means
summer_means
```

    ## # A tibble: 73 x 2
    ##    date       seven_day_prior_mean_temp
    ##    <date>                         <dbl>
    ##  1 2019-07-22                      94.2
    ##  2 2019-07-21                      93.5
    ##  3 2019-07-23                      91.9
    ##  4 2019-07-20                      91.8
    ##  5 2019-07-24                      89.9
    ##  6 2019-07-19                      89.5
    ##  7 2019-07-25                      88.0
    ##  8 2019-08-22                      87.6
    ##  9 2019-07-18                      87.5
    ## 10 2019-08-21                      86.9
    ## # … with 63 more rows
…
