…
``` r
ip_full_zip_medicaid_disease_heat  %>%
    select(matches("ZIPCODE|asthma|copd|kidney|heart_disease|diabetes|temp"))%>%
    select(ZIPCODE, temp_median_aft, everything()) %>%
    arrange(ZIPCODE)
```

    ## # A tibble: 26 x 7
    ##    ZIPCODE temp_median_aft medicaid_kidney… medicaid_copd_p…
    ##      <dbl>           <dbl>            <dbl>            <dbl>
    ##  1   21201            95.9           0.123             0.301
    ##  2   21202            97.1           0.138             0.274
    ##  3   21205            95.7           0.116             0.307
    ##  4   21206            94.1           0.0820            0.218
    ##  5   21207            93.5           0.0995            0.195
    ##  6   21209            93.1           0.0636            0.120
    ##  7   21210            93.2           0.0890            0.194
    ##  8   21211            94.8           0.0892            0.255
    ##  9   21212            93.5           0.119             0.257
    ## 10   21213            95.4           0.125             0.292
    ## # … with 16 more rows, and 3 more variables: medicaid_asthma_prev <dbl>,
    ## #   medicaid_heart_disease_prev <dbl>, medicaid_diabetes_prev <dbl>
…
    ## # A tibble: 1 x 3
    ##   rowname     median_household_income_d `poverty_%`
    ##   <chr>                           <dbl>       <dbl>
    ## 1 asthma_prev                    -0.708       0.737

``` r
  op_er_full_zip_disease_heat %>%
    select(ZIPCODE, asthma_prev, median_household_income_d, `poverty_%`) %>%
    arrange(desc(asthma_prev))
```

    ## # A tibble: 26 x 4
    ##    ZIPCODE asthma_prev median_household_income_d `poverty_%`
    ##      <dbl>       <dbl>                     <dbl>       <dbl>
    ##  1   21223       0.149                     26899        38.5
    ##  2   21213       0.132                     34917        28.2
    ##  3   21205       0.126                     28675        37.1
    ##  4   21217       0.126                     28116        36.7
    ##  5   21229       0.124                     47422        18.6
    ##  6   21216       0.123                     37314        26.2
    ##  7   21231       0.121                     69979        19.8
    ##  8   21218       0.117                     43352        24.5
    ##  9   21201       0.114                     33877        30.8
    ## 10   21225       0.113                     41904        24.9
    ## # … with 16 more rows
…
"..McElderry Park, Baltimore’s hottest neighborhood, has three young sons with the disease."

#### Explanation \[cq\]

The mean afternoon temperature, as measured in late August 2018 by researchers studying Baltimore's urban heat island, in McElderry Park was 99.4 degrees, the highest in the city.

#### Supporting code and output \[cq\]

``` r
nsa_tree_temp %>%
  select(nsa_name, temp_mean_aft) %>%
  arrange(desc(temp_mean_aft))
```

    ## # A tibble: 278 x 2
    ##    nsa_name              temp_mean_aft
    ##    <chr>                         <dbl>
    ##  1 mcelderry park                 99.4
    ##  2 milton-montford                99.3
    ##  3 patterson place                98.6
    ##  4 dunbar-broadway                98.3
    ##  5 ellwood park/monument          98.3
    ##  6 penn-fallsway                  98.3
    ##  7 pleasant view gardens          98.3
    ##  8 madison-eastend                97.9
    ##  9 old goucher                    97.9
    ## 10 biddle street                  97.9
    ## # … with 268 more rows
…
