…
#### Explanation \[cq\]

As measured by mean afternoon temperature in August 2018, McElderry Park is the city's hottest neighborhood, at 99.39 degrees. It ranked 260th out of 278 neighborhoods for amount of tree canopy cover in 2015. The McElderry Park neighborhood is split horizontally across the middle between Madison/East End and Patterson Park North & East community statistical areas. The McElderry Park CSAs have a high poverty rate, ranked 7th and 20th out of 55 CSAs.

#### Supporting code and output \[cq\]

``` r
# McElderry Park, city's hottest neighborhood
nsa_tree_temp %>%
  select(nsa_name, temp_mean_aft) %>%
  arrange(desc(temp_mean_aft))
```

    ## # A tibble: 278 x 2
    ##    nsa_name              temp_mean_aft
    ##    <chr>                         <dbl>
    ##  1 mcelderry park                 99.4
    ##  2 milton-montford                99.3
    ##  3 patterson place                98.6
    ##  4 dunbar-broadway                98.3
    ##  5 ellwood park/monument          98.3
    ##  6 penn-fallsway                  98.3
    ##  7 pleasant view gardens          98.3
    ##  8 madison-eastend                97.9
    ##  9 old goucher                    97.9
    ## 10 biddle street                  97.9
    ## # … with 268 more rows
…
    ## # A tibble: 1 x 2
    ##   variable        temp_mean_aft
    ##   <chr>                   <dbl>
    ## 1 avg_canopy_2015        -0.891

``` r
# Data for graphic. Percentage of canopy cover in 2015 and data for mean afternoon temperature in 2018.
  nsa_tree_temp %>%
  select(nsa_name, avg_canopy_2015 = `15_lid_mean`, temp_mean_aft) %>%
  arrange(desc(temp_mean_aft))
```

    ## # A tibble: 278 x 3
    ##    nsa_name              avg_canopy_2015 temp_mean_aft
    ##    <chr>                           <dbl>         <dbl>
    ##  1 mcelderry park                 0.0614          99.4
    ##  2 milton-montford                0.0641          99.3
    ##  3 patterson place                0.0746          98.6
    ##  4 dunbar-broadway                0.101           98.3
    ##  5 ellwood park/monument          0.0645          98.3
    ##  6 penn-fallsway                  0.0296          98.3
    ##  7 pleasant view gardens          0.0846          98.3
    ##  8 madison-eastend                0.0771          97.9
    ##  9 old goucher                    0.0898          97.9
    ## 10 biddle street                  0.127           97.9
    ## # … with 268 more rows
…
